dump.vcd
$date
	Fri Jul 15 22:47:32 2022
$end
$version
	Icarus Verilog
$end
$timescale
	1s
$end
$scope module main $end
$var wire 32 ! sinal_extendido [31:0] $end
$var wire 32 " programCounter [31:0] $end
$var wire 32 # instrucao [31:0] $end
$var wire 1024 $ fioSaida [1023:0] $end
$var wire 32 % endereco [31:0] $end
$var wire 1 & Zero $end
$var wire 5 ' WriteR [4:0] $end
$var wire 1 ( RegistradorEsc $end
$var wire 5 ) R2 [4:0] $end
$var wire 5 * R1 [4:0] $end
$var wire 7 + Opcode [6:0] $end
$var wire 32 , MuxOut [31:0] $end
$var wire 1 - MemoriaMov $end
$var wire 1 . MemoriaLida $end
$var wire 1 / MemoriaEscrita $end
$var wire 32 0 Data2 [31:0] $end
$var wire 32 1 Data1 [31:0] $end
$var wire 32 2 DadosLidos [31:0] $end
$var wire 32 3 DadosEscritosRF [31:0] $end
$var wire 1 4 Branch $end
$var wire 4 5 ALUcontrol [3:0] $end
$var wire 32 6 ALU_Out [31:0] $end
$var wire 1 7 ALUSrc $end
$var wire 1 8 ALUOp1 $end
$var wire 1 9 ALUOp0 $end
$var reg 1 : clock $end
$var reg 1 ; reset $end
$var integer 32 < i [31:0] $end
$scope module p1 $end
$var wire 1 : clock $end
$var wire 1 ; reset $end
$var wire 32 = Endereco [31:0] $end
$var reg 32 > PC [31:0] $end
$upscope $end
$scope module p10 $end
$var wire 32 ? In2 [31:0] $end
$var wire 32 @ In1 [31:0] $end
$var wire 1 - Escolha $end
$var reg 32 A Out [31:0] $end
$upscope $end
$scope module p11 $end
$var wire 32 B PC [31:0] $end
$var wire 1 C clock $end
$var wire 1 D sinal $end
$var wire 32 E sinal_extendido [31:0] $end
$var wire 32 F novo_sinal [31:0] $end
$var wire 1 & Zero $end
$var wire 1 4 Branch $end
$var reg 32 G Endereco [31:0] $end
$scope module Division_by_4 $end
$var wire 32 H Extensor [31:0] $end
$var reg 32 I Out [31:0] $end
$upscope $end
$upscope $end
$scope module p2 $end
$var wire 32 J Endereco [31:0] $end
$var wire 1 ; reset $end
$var reg 7 K Opcode [6:0] $end
$var reg 5 L R1 [4:0] $end
$var reg 5 M R2 [4:0] $end
$var reg 5 N WriteR [4:0] $end
$var reg 32 O instrucao [31:0] $end
$upscope $end
$scope module p3 $end
$var wire 7 P Opcode [6:0] $end
$var reg 1 9 ALUOp0 $end
$var reg 1 8 ALUOp1 $end
$var reg 1 7 ALUSrc $end
$var reg 1 4 Branch $end
$var reg 1 / MemoriaEscrita $end
$var reg 1 . MemoriaLida $end
$var reg 1 - MemoriaMov $end
$var reg 1 ( RegistradorEsc $end
$upscope $end
$scope module p4 $end
$var wire 32 Q DadosEscritos [31:0] $end
$var wire 32 R Data1 [31:0] $end
$var wire 32 S Data2 [31:0] $end
$var wire 1 - MemoriaMov $end
$var wire 5 T R1 [4:0] $end
$var wire 5 U R2 [4:0] $end
$var wire 1 ( RegistradorEsc $end
$var wire 5 V WriteR [4:0] $end
$var wire 1 : clock $end
$var wire 1 ; reset $end
$upscope $end
$scope module p5 $end
$var wire 32 W instrucao [31:0] $end
$var reg 32 X sinal_extendido [31:0] $end
$upscope $end
$scope module p6 $end
$var wire 1 7 Escolha $end
$var wire 32 Y In1 [31:0] $end
$var wire 32 Z In2 [31:0] $end
$var reg 32 [ Out [31:0] $end
$upscope $end
$scope module p7 $end
$var wire 1 9 ALUOp0 $end
$var wire 1 8 ALUOp1 $end
$var wire 32 \ instrucao [31:0] $end
$var wire 4 ] possibilidades [3:0] $end
$var reg 4 ^ ALUcontrol [3:0] $end
$upscope $end
$scope module p8 $end
$var wire 32 _ A [31:0] $end
$var wire 4 ` ALUcontrol [3:0] $end
$var wire 32 a B [31:0] $end
$var reg 32 b ALU_Out [31:0] $end
$var reg 1 & Zero $end
$upscope $end
$scope module p9 $end
$var wire 32 c DadosEscritos [31:0] $end
$var wire 32 d DadosLidos [31:0] $end
$var wire 32 e Endereco [31:0] $end
$var wire 1 ; InicializarMem $end
$var wire 1 / MemoriaEscrita $end
$var wire 1 . MemoriaLida $end
$var wire 1 : clock $end
$var reg 1024 f fioSaida [1023:0] $end
$var integer 32 g i [31:0] $end
$var integer 32 h j [31:0] $end
$upscope $end
$upscope $end
$enddefinitions $end
#5
$dumpvars
b100000 h
b100000 g
bx f
b111 e
b0 d
b11 c
b111 b
b111 a
b10 `
b0 _
b10 ^
b10 ]
b1100000010001110100011 \
b111 [
b111 Z
b11 Y
b111 X
b1100000010001110100011 W
b111 V
b11 U
b0 T
b11 S
b0 R
b111 Q
b100011 P
b1100000010001110100011 O
b111 N
b11 M
b0 L
b100011 K
b0 J
b11 I
b111 H
b1 G
b11 F
b111 E
0D
zC
b0 B
b111 A
b111 @
b0 ?
b0 >
b1 =
bx <
0;
1:
09
08
17
b111 6
b10 5
04
b111 3
b0 2
b0 1
b11 0
1/
0.
0-
b111 ,
b100011 +
b0 *
b11 )
0(
b111 '
0&
b1 %
bx $
b1100000010001110100011 #
b0 "
b111 !
$end
#6
b0 $
b0 f
b100000 h
0:
#9
b1 3
b1 A
b1 Q
b1 6
b1 @
b1 b
b1 e
b1 ,
b1 [
b1 a
b0 F
b0 I
b1 !
b1 E
b1 H
b1 X
b1 Z
b10 %
b10 =
b10 G
b1 '
b1 N
b1 V
b110 0
b110 S
b110 Y
b110 c
b110 )
b110 M
b110 U
b11000000010000010100011 #
b11000000010000010100011 O
b11000000010000010100011 W
b11000000010000010100011 \
b0 2
b0 ?
b0 d
b1 "
b1 >
b1 B
b1 J
1:
#12
b1100000000000000000000000000000000000000000000000000000000000000000000000000000000000000000000000000000000000000000000000000000000000000000000000000000000000000000000000000000000000000000000000000000000000000000000000000000000 $
b1100000000000000000000000000000000000000000000000000000000000000000000000000000000000000000000000000000000000000000000000000000000000000000000000000000000000000000000000000000000000000000000000000000000000000000000000000000000 f
b100000 h
0:
#15
b11 3
b11 A
b11 Q
b11 6
b11 @
b11 b
b11 e
b11 ,
b11 [
b11 a
b1 F
b1 I
b11 !
b11 E
b11 H
b11 X
b11 Z
b11 %
b11 =
b11 G
b11 '
b11 N
b11 V
b1110 0
b1110 S
b1110 Y
b1110 c
b1110 )
b1110 M
b1110 U
b111000000010000110100011 #
b111000000010000110100011 O
b111000000010000110100011 W
b111000000010000110100011 \
b10 "
b10 >
b10 B
b10 J
b0 2
b0 ?
b0 d
1:
#18
b1100000000000000000000000000000000000000000000000000000000000000000000000000000000000000000000000000000000000000000000000000000000000000000000000000000000000000000000000000000000000000000000011000000000000000000000000000000000 $
b1100000000000000000000000000000000000000000000000000000000000000000000000000000000000000000000000000000000000000000000000000000000000000000000000000000000000000000000000000000000000000000000011000000000000000000000000000000000 f
b100000 h
0:
#21
b110 3
b110 A
b110 Q
b110 6
b110 @
b110 b
b110 e
b110 ,
b110 [
b110 a
b11 F
b11 I
b110 !
b110 E
b110 H
b110 X
b110 Z
b100 %
b100 =
b100 G
b110 '
b110 N
b110 V
b10010 0
b10010 S
b10010 Y
b10010 c
b10010 )
b10010 M
b10010 U
b1001000000010001100100011 #
b1001000000010001100100011 O
b1001000000010001100100011 W
b1001000000010001100100011 \
b0 2
b0 ?
b0 d
b11 "
b11 >
b11 B
b11 J
1:
#24
b1100000000000000000000000000000000000000000000000000000000000000000000000000000000000000000000000000000000000000000000000000001110000000000000000000000000000000000000000000000000000000000000011000000000000000000000000000000000 $
b1100000000000000000000000000000000000000000000000000000000000000000000000000000000000000000000000000000000000000000000000000001110000000000000000000000000000000000000000000000000000000000000011000000000000000000000000000000000 f
b100000 h
0:
#27
b101 3
b101 A
b101 Q
b101 6
b101 @
b101 b
b101 e
b101 ,
b101 [
b101 a
b10 F
b10 I
b101 !
b101 E
b101 H
b101 X
b101 Z
b101 %
b101 =
b101 G
b101 '
b101 N
b101 V
b100 0
b100 S
b100 Y
b100 c
b100 )
b100 M
b100 U
b10000000010001010100011 #
b10000000010001010100011 O
b10000000010001010100011 W
b10000000010001010100011 \
b100 "
b100 >
b100 B
b100 J
b0 2
b0 ?
b0 d
1:
#30
b1100000000000000000000000000010010000000000000000000000000000000000000000000000000000000000000000000000000000000000000000000001110000000000000000000000000000000000000000000000000000000000000011000000000000000000000000000000000 $
b1100000000000000000000000000010010000000000000000000000000000000000000000000000000000000000000000000000000000000000000000000001110000000000000000000000000000000000000000000000000000000000000011000000000000000000000000000000000 f
b100000 h
0:
#33
b111 3
b111 A
b111 Q
b111 6
b111 @
b111 b
b111 e
b111 ,
b111 [
b111 a
b11 F
b11 I
b111 !
b111 E
b111 H
b111 X
b111 Z
b110 %
b110 =
b110 G
b111 '
b111 N
b111 V
b10 0
b10 S
b10 Y
b10 c
b10 )
b10 M
b10 U
b1000000010001110100011 #
b1000000010001110100011 O
b1000000010001110100011 W
b1000000010001110100011 \
b11 2
b11 ?
b11 d
b101 "
b101 >
b101 B
b101 J
1:
#36
b1100000000000000000000000000010010000000000000000000000000000001000000000000000000000000000000000000000000000000000000000000001110000000000000000000000000000000000000000000000000000000000000011000000000000000000000000000000000 $
b1100000000000000000000000000010010000000000000000000000000000001000000000000000000000000000000000000000000000000000000000000001110000000000000000000000000000000000000000000000000000000000000011000000000000000000000000000000000 f
b100000 h
0:
#39
b111 %
b111 =
b111 G
b11110 0
b11110 S
b11110 Y
b11110 c
b11110 )
b11110 M
b11110 U
b110 ]
b1111000000110001110100011 #
b1111000000110001110100011 O
b1111000000110001110100011 W
b1111000000110001110100011 \
b110 "
b110 >
b110 B
b110 J
b10 2
b10 ?
b10 d
1:
#42
b1000000000000000000000000000010010000000000000000000000000000001000000000000000000000000000000000000000000000000000000000000001110000000000000000000000000000000000000000000000000000000000000011000000000000000000000000000000000 $
b1000000000000000000000000000010010000000000000000000000000000001000000000000000000000000000000000000000000000000000000000000001110000000000000000000000000000000000000000000000000000000000000011000000000000000000000000000000000 f
b100000 h
0:
#45
b101 3
b101 A
b101 Q
b101 6
b101 @
b101 b
b101 e
b101 ,
b101 [
b101 a
b10 F
b10 I
b101 !
b101 E
b101 H
b101 X
b101 Z
b1000 %
b1000 =
b1000 G
b101 '
b101 N
b101 V
b100 0
b100 S
b100 Y
b100 c
b100 )
b100 M
b100 U
b10 ]
b10000000010001010100011 #
b10000000010001010100011 O
b10000000010001010100011 W
b10000000010001010100011 \
b100 2
b100 ?
b100 d
b111 "
b111 >
b111 B
b111 J
1:
#48
b1111000000000000000000000000000010010000000000000000000000000000001000000000000000000000000000000000000000000000000000000000000001110000000000000000000000000000000000000000000000000000000000000011000000000000000000000000000000000 $
b1111000000000000000000000000000010010000000000000000000000000000001000000000000000000000000000000000000000000000000000000000000001110000000000000000000000000000000000000000000000000000000000000011000000000000000000000000000000000 f
b100000 h
0:
#51
b111 3
b111 A
b111 Q
b11110 2
b11110 ?
b11110 d
b111 6
b111 @
b111 b
b111 e
b111 ,
b111 [
b111 a
b11 F
b11 I
b111 !
b111 E
b111 H
b111 X
b111 Z
b1001 %
b1001 =
b1001 G
b111 '
b111 N
b111 V
b10 0
b10 S
b10 Y
b10 c
b10 )
b10 M
b10 U
b1000000010001110100011 #
b1000000010001110100011 O
b1000000010001110100011 W
b1000000010001110100011 \
b1000 "
b1000 >
b1000 B
b1000 J
1:
#54
b100000 h
0:
#57
b1011 3
b1011 A
b1011 Q
b1011 6
b1011 @
b1011 b
b1011 e
b1011 ,
b1011 [
b1011 a
b101 F
b101 I
b1011 !
b1011 E
b1011 H
b1011 X
b1011 Z
b1010 %
b1010 =
b1010 G
b1011 '
b1011 N
b1011 V
b11110 0
b11110 S
b11110 Y
b11110 c
b11110 )
b11110 M
b11110 U
b110 ]
b1111000000110010110100011 #
b1111000000110010110100011 O
b1111000000110010110100011 W
b1111000000110010110100011 \
b0 2
b0 ?
b0 d
b1001 "
b1001 >
b1001 B
b1001 J
1:
#60
b1000000000000000000000000000010010000000000000000000000000000001000000000000000000000000000000000000000000000000000000000000001110000000000000000000000000000000000000000000000000000000000000011000000000000000000000000000000000 $
b1000000000000000000000000000010010000000000000000000000000000001000000000000000000000000000000000000000000000000000000000000001110000000000000000000000000000000000000000000000000000000000000011000000000000000000000000000000000 f
b100000 h
0:
#63
b101 3
b101 A
b101 Q
b101 6
b101 @
b101 b
b101 e
b101 ,
b101 [
b101 a
b10 F
b10 I
b101 !
b101 E
b101 H
b101 X
b101 Z
b1011 %
b1011 =
b1011 G
b101 '
b101 N
b101 V
b100 0
b100 S
b100 Y
b100 c
b100 )
b100 M
b100 U
b10 ]
b10000000010001010100011 #
b10000000010001010100011 O
b10000000010001010100011 W
b10000000010001010100011 \
b1010 "
b1010 >
b1010 B
b1010 J
b100 2
b100 ?
b100 d
1:
#66
b111100000000000000000000000000000000000000000000000000000000000000000000000000000000000000000000000000000000000000000000000000000001000000000000000000000000000010010000000000000000000000000000001000000000000000000000000000000000000000000000000000000000000001110000000000000000000000000000000000000000000000000000000000000011000000000000000000000000000000000 $
b111100000000000000000000000000000000000000000000000000000000000000000000000000000000000000000000000000000000000000000000000000000001000000000000000000000000000010010000000000000000000000000000001000000000000000000000000000000000000000000000000000000000000001110000000000000000000000000000000000000000000000000000000000000011000000000000000000000000000000000 f
b100000 h
0:
#69
b111 3
b111 A
b111 Q
b10 2
b10 ?
b10 d
b111 6
b111 @
b111 b
b111 e
b111 ,
b111 [
b111 a
b11 F
b11 I
b111 !
b111 E
b111 H
b111 X
b111 Z
b1100 %
b1100 =
b1100 G
b111 '
b111 N
b111 V
b10 0
b10 S
b10 Y
b10 c
b10 )
b10 M
b10 U
b1000000010001110100011 #
b1000000010001110100011 O
b1000000010001110100011 W
b1000000010001110100011 \
b1011 "
b1011 >
b1011 B
b1011 J
1:
#72
b100000 h
0:
#75
b11111 3
b11111 A
b11111 Q
b0 2
b0 ?
b0 d
b11111 6
b11111 @
b11111 b
b11111 e
b11111 ,
b11111 [
b11111 a
b1111 F
b1111 I
b11111 !
b11111 E
b11111 H
b11111 X
b11111 Z
b1101 %
b1101 =
b1101 G
b11111 '
b11111 N
b11111 V
b11111 0
b11111 S
b11111 Y
b11111 c
b11111 )
b11111 M
b11111 U
b110 ]
b1111100000110111110100011 #
b1111100000110111110100011 O
b1111100000110111110100011 W
b1111100000110111110100011 \
b1100 "
b1100 >
b1100 B
b1100 J
1:
#78
b100000 h
0:
#81
1&
b0 3
b0 A
b0 Q
b0 6
b0 @
b0 b
b0 e
b0 ,
b0 [
b0 a
0/
07
b0 F
b0 I
b1 !
b1 E
b1 H
b1 X
b1 Z
b1110 %
b1110 =
b1110 G
b0 '
b0 N
b0 V
b0 0
b0 S
b0 Y
b0 c
b0 )
b0 M
b0 U
b0 +
b0 K
b0 P
b0 ]
b0 #
b0 O
b0 W
b0 \
b0 2
b0 ?
b0 d
b1101 "
b1101 >
b1101 B
b1101 J
1:
#84
b1111100000000000000000000000000000000000000000000000000000000000000000000000000000000000000000000000000000000000000000000000000000000000000000000000000000000000000000000000000000000000000000000000000000000000000000000000000000000000000000000000000000000000000000000000000000000000000000000000000000000000000000000000000000000000000000000000000000000000000000000000000000000000000000000000000000000000000000000000000000000000000000000000000000000000000000000000000000000000000000000000000000000000000000000000000000000000000000000000000000000000000000000000000000000000000000000000000000000000000000000000000000000000000000000000000000000000111100000000000000000000000000000000000000000000000000000000000000000000000000000000000000000000000000000000000000000000000000000001000000000000000000000000000010010000000000000000000000000000001000000000000000000000000000000000000000000000000000000000000001110000000000000000000000000000000000000000000000000000000000000011000000000000000000000000000000000 $
b1111100000000000000000000000000000000000000000000000000000000000000000000000000000000000000000000000000000000000000000000000000000000000000000000000000000000000000000000000000000000000000000000000000000000000000000000000000000000000000000000000000000000000000000000000000000000000000000000000000000000000000000000000000000000000000000000000000000000000000000000000000000000000000000000000000000000000000000000000000000000000000000000000000000000000000000000000000000000000000000000000000000000000000000000000000000000000000000000000000000000000000000000000000000000000000000000000000000000000000000000000000000000000000000000000000000000000111100000000000000000000000000000000000000000000000000000000000000000000000000000000000000000000000000000000000000000000000000000001000000000000000000000000000010010000000000000000000000000000001000000000000000000000000000000000000000000000000000000000000001110000000000000000000000000000000000000000000000000000000000000011000000000000000000000000000000000 f
b100000 h
0:
#85
b100000 <
